{
    "data": [
        {
            "store_id": 284378,
            "store_name": "Sepio",
            "store_logo": "https:\/\/d1d8o7q9jg8pjk.cloudfront.net\/l\/68466252574e1.jpg",
            "store_logo_md": "https:\/\/d1d8o7q9jg8pjk.cloudfront.net\/l\/md_68466252574e1.jpg",
            "store_logo_xs": "https:\/\/d1d8o7q9jg8pjk.cloudfront.net\/l\/xs_68466252574e1.jpg",
            "photo_md": "https:\/\/api-dash.olsera.co.id\/img\/no_data_item.png",
            "photo_xs": "https:\/\/api-dash.olsera.co.id\/img\/no_data_item.png",
            "product_id": 100078666,
            "product_group_name": "Bahan Baku",
            "product_name": "BB - Sunset Mango Beans",
            "product_sku": "",
            "product_variant_id": null,
            "product_variant_name": null,
            "product_variant_sku": null,
            "beginning_qty": 0,
            "sum_incoming_qty": 1569,
            "sum_return_qty": 0,
            "sum_sales_qty": 572,
            "sum_outgoing_qty": 151,
            "sisa": 846
        },
        {
            "store_id": 284378,
            "store_name": "Sepio",
            "store_logo": "https:\/\/d1d8o7q9jg8pjk.cloudfront.net\/l\/68466252574e1.jpg",
            "store_logo_md": "https:\/\/d1d8o7q9jg8pjk.cloudfront.net\/l\/md_68466252574e1.jpg",
            "store_logo_xs": "https:\/\/d1d8o7q9jg8pjk.cloudfront.net\/l\/xs_68466252574e1.jpg",
            "photo_md": "https:\/\/api-dash.olsera.co.id\/img\/no_data_item.png",
            "photo_xs": "https:\/\/api-dash.olsera.co.id\/img\/no_data_item.png",
            "product_id": 100078670,
            "product_group_name": "Bahan Baku",
            "product_name": "BB - Berry Beans",
            "product_sku": "",
            "product_variant_id": null,
            "product_variant_name": null,
            "product_variant_sku": null,
            "beginning_qty": 0,
            "sum_incoming_qty": 413,
            "sum_return_qty": 0,
            "sum_sales_qty": 220,
            "sum_outgoing_qty": 193,
            "sisa": 0
        },
        {
            "store_id": 284378,
            "store_name": "Sepio",
            "store_logo": "https:\/\/d1d8o7q9jg8pjk.cloudfront.net\/l\/68466252574e1.jpg",
            "store_logo_md": "https:\/\/d1d8o7q9jg8pjk.cloudfront.net\/l\/md_68466252574e1.jpg",
            "store_logo_xs": "https:\/\/d1d8o7q9jg8pjk.cloudfront.net\/l\/xs_68466252574e1.jpg",
            "photo_md": "https:\/\/api-dash.olsera.co.id\/img\/no_data_item.png",
            "photo_xs": "https:\/\/api-dash.olsera.co.id\/img\/no_data_item.png",
            "product_id": 100078660,
            "product_group_name": "Bahan Baku",
            "product_name": "BB - Creamy Melon Beans",
            "product_sku": "",
            "product_variant_id": null,
            "product_variant_name": null,
            "product_variant_sku": null,
            "beginning_qty": 0,
            "sum_incoming_qty": 1000,
            "sum_return_qty": 0,
            "sum_sales_qty": 132,
            "sum_outgoing_qty": 94,
            "sisa": 774
        },
        {
            "store_id": 284378,
            "store_name": "Sepio",
            "store_logo": "https:\/\/d1d8o7q9jg8pjk.cloudfront.net\/l\/68466252574e1.jpg",
            "store_logo_md": "https:\/\/d1d8o7q9jg8pjk.cloudfront.net\/l\/md_68466252574e1.jpg",
            "store_logo_xs": "https:\/\/d1d8o7q9jg8pjk.cloudfront.net\/l\/xs_68466252574e1.jpg",
            "photo_md": "https:\/\/api-dash.olsera.co.id\/img\/no_data_item.png",
            "photo_xs": "https:\/\/api-dash.olsera.co.id\/img\/no_data_item.png",
            "product_id": 95001294,
            "product_group_name": "Bahan Baku",
            "product_name": "BB - Orange Leaf",
            "product_sku": "",
            "product_variant_id": null,
            "product_variant_name": null,
            "product_variant_sku": null,
            "beginning_qty": 45,
            "sum_incoming_qty": 2,
            "sum_return_qty": 0,
            "sum_sales_qty": 5,
            "sum_outgoing_qty": 0,
            "sisa": 42
        },
        {
            "store_id": 284378,
            "store_name": "Sepio",
            "store_logo": "https:\/\/d1d8o7q9jg8pjk.cloudfront.net\/l\/68466252574e1.jpg",
            "store_logo_md": "https:\/\/d1d8o7q9jg8pjk.cloudfront.net\/l\/md_68466252574e1.jpg",
            "store_logo_xs": "https:\/\/d1d8o7q9jg8pjk.cloudfront.net\/l\/xs_68466252574e1.jpg",
            "photo_md": "https:\/\/api-dash.olsera.co.id\/img\/no_data_item.png",
            "photo_xs": "https:\/\/api-dash.olsera.co.id\/img\/no_data_item.png",
            "product_id": 94914708,
            "product_group_name": "Bahan Baku",
            "product_name": "BB - Earl Grey Loose Leaf",
            "product_sku": "",
            "product_variant_id": null,
            "product_variant_name": null,
            "product_variant_sku": null,
            "beginning_qty": 76,
            "sum_incoming_qty": 2,
            "sum_return_qty": 0,
            "sum_sales_qty": 5,
            "sum_outgoing_qty": 0,
            "sisa": 73
        },
        {
            "store_id": 284378,
            "store_name": "Sepio",
            "store_logo": "https:\/\/d1d8o7q9jg8pjk.cloudfront.net\/l\/68466252574e1.jpg",
            "store_logo_md": "https:\/\/d1d8o7q9jg8pjk.cloudfront.net\/l\/md_68466252574e1.jpg",
            "store_logo_xs": "https:\/\/d1d8o7q9jg8pjk.cloudfront.net\/l\/xs_68466252574e1.jpg",
            "photo_md": "https:\/\/api-dash.olsera.co.id\/img\/no_data_item.png",
            "photo_xs": "https:\/\/api-dash.olsera.co.id\/img\/no_data_item.png",
            "product_id": 94395649,
            "product_group_name": "Bahan Baku",
            "product_name": "BB - Hazelnut Syrup",
            "product_sku": "",
            "product_variant_id": null,
            "product_variant_name": null,
            "product_variant_sku": null,
            "beginning_qty": 876,
            "sum_incoming_qty": 15,
            "sum_return_qty": 0,
            "sum_sales_qty": 36,
            "sum_outgoing_qty": 0,
            "sisa": 855
        },
        {
            "store_id": 284378,
            "store_name": "Sepio",
            "store_logo": "https:\/\/d1d8o7q9jg8pjk.cloudfront.net\/l\/68466252574e1.jpg",
            "store_logo_md": "https:\/\/d1d8o7q9jg8pjk.cloudfront.net\/l\/md_68466252574e1.jpg",
            "store_logo_xs": "https:\/\/d1d8o7q9jg8pjk.cloudfront.net\/l\/xs_68466252574e1.jpg",
            "photo_md": "https:\/\/api-dash.olsera.co.id\/img\/no_data_item.png",
            "photo_xs": "https:\/\/api-dash.olsera.co.id\/img\/no_data_item.png",
            "product_id": 94402645,
            "product_group_name": "Bahan Baku",
            "product_name": "BB - Tiramisu Syrup",
            "product_sku": "",
            "product_variant_id": null,
            "product_variant_name": null,
            "product_variant_sku": null,
            "beginning_qty": 347,
            "sum_incoming_qty": 13,
            "sum_return_qty": 0,
            "sum_sales_qty": 56,
            "sum_outgoing_qty": 0,
            "sisa": 304
        },
        {
            "store_id": 284378,
            "store_name": "Sepio",
            "store_logo": "https:\/\/d1d8o7q9jg8pjk.cloudfront.net\/l\/68466252574e1.jpg",
            "store_logo_md": "https:\/\/d1d8o7q9jg8pjk.cloudfront.net\/l\/md_68466252574e1.jpg",
            "store_logo_xs": "https:\/\/d1d8o7q9jg8pjk.cloudfront.net\/l\/xs_68466252574e1.jpg",
            "photo_md": "https:\/\/api-dash.olsera.co.id\/img\/no_data_item.png",
            "photo_xs": "https:\/\/api-dash.olsera.co.id\/img\/no_data_item.png",
            "product_id": 94458869,
            "product_group_name": "Bahan Baku",
            "product_name": "BB - Harum Manis Pulp",
            "product_sku": "",
            "product_variant_id": null,
            "product_variant_name": null,
            "product_variant_sku": null,
            "beginning_qty": 1677,
            "sum_incoming_qty": 28,
            "sum_return_qty": 0,
            "sum_sales_qty": 261,
            "sum_outgoing_qty": 0,
            "sisa": 1444
        },
        {
            "store_id": 284378,
            "store_name": "Sepio",
            "store_logo": "https:\/\/d1d8o7q9jg8pjk.cloudfront.net\/l\/68466252574e1.jpg",
            "store_logo_md": "https:\/\/d1d8o7q9jg8pjk.cloudfront.net\/l\/md_68466252574e1.jpg",
            "store_logo_xs": "https:\/\/d1d8o7q9jg8pjk.cloudfront.net\/l\/xs_68466252574e1.jpg",
            "photo_md": "https:\/\/api-dash.olsera.co.id\/img\/no_data_item.png",
            "photo_xs": "https:\/\/api-dash.olsera.co.id\/img\/no_data_item.png",
            "product_id": 95105134,
            "product_group_name": "Other Drinks",
            "product_name": "Mineral Water",
            "product_sku": "",
            "product_variant_id": null,
            "product_variant_name": null,
            "product_variant_sku": null,
            "beginning_qty": 37,
            "sum_incoming_qty": 0,
            "sum_return_qty": 0,
            "sum_sales_qty": 4,
            "sum_outgoing_qty": 0,
            "sisa": 33
        },
        {
            "store_id": 284378,
            "store_name": "Sepio",
            "store_logo": "https:\/\/d1d8o7q9jg8pjk.cloudfront.net\/l\/68466252574e1.jpg",
            "store_logo_md": "https:\/\/d1d8o7q9jg8pjk.cloudfront.net\/l\/md_68466252574e1.jpg",
            "store_logo_xs": "https:\/\/d1d8o7q9jg8pjk.cloudfront.net\/l\/xs_68466252574e1.jpg",
            "photo_md": "https:\/\/api-dash.olsera.co.id\/img\/no_data_item.png",
            "photo_xs": "https:\/\/api-dash.olsera.co.id\/img\/no_data_item.png",
            "product_id": 95678277,
            "product_group_name": "CAKE",
            "product_name": "Almond Croissant",
            "product_sku": "",
            "product_variant_id": null,
            "product_variant_name": null,
            "product_variant_sku": null,
            "beginning_qty": 3,
            "sum_incoming_qty": 1,
            "sum_return_qty": 0,
            "sum_sales_qty": 1,
            "sum_outgoing_qty": 0,
            "sisa": 3
        },
        {
            "store_id": 284378,
            "store_name": "Sepio",
            "store_logo": "https:\/\/d1d8o7q9jg8pjk.cloudfront.net\/l\/68466252574e1.jpg",
            "store_logo_md": "https:\/\/d1d8o7q9jg8pjk.cloudfront.net\/l\/md_68466252574e1.jpg",
            "store_logo_xs": "https:\/\/d1d8o7q9jg8pjk.cloudfront.net\/l\/xs_68466252574e1.jpg",
            "photo_md": "https:\/\/api-dash.olsera.co.id\/img\/no_data_item.png",
            "photo_xs": "https:\/\/api-dash.olsera.co.id\/img\/no_data_item.png",
            "product_id": 95678377,
            "product_group_name": "CAKE",
            "product_name": "Ham & Cheese",
            "product_sku": "",
            "product_variant_id": null,
            "product_variant_name": null,
            "product_variant_sku": null,
            "beginning_qty": 2,
            "sum_incoming_qty": 2,
            "sum_return_qty": 0,
            "sum_sales_qty": 0,
            "sum_outgoing_qty": 0,
            "sisa": 4
        },
        {
            "store_id": 284378,
            "store_name": "Sepio",
            "store_logo": "https:\/\/d1d8o7q9jg8pjk.cloudfront.net\/l\/68466252574e1.jpg",
            "store_logo_md": "https:\/\/d1d8o7q9jg8pjk.cloudfront.net\/l\/md_68466252574e1.jpg",
            "store_logo_xs": "https:\/\/d1d8o7q9jg8pjk.cloudfront.net\/l\/xs_68466252574e1.jpg",
            "photo_md": "https:\/\/api-dash.olsera.co.id\/img\/no_data_item.png",
            "photo_xs": "https:\/\/api-dash.olsera.co.id\/img\/no_data_item.png",
            "product_id": 97055376,
            "product_group_name": "CAKE",
            "product_name": "Muffin Chocolate",
            "product_sku": "",
            "product_variant_id": null,
            "product_variant_name": null,
            "product_variant_sku": null,
            "beginning_qty": 0,
            "sum_incoming_qty": 6,
            "sum_return_qty": 0,
            "sum_sales_qty": 5,
            "sum_outgoing_qty": 0,
            "sisa": 1
        },
        {
            "store_id": 284378,
            "store_name": "Sepio",
            "store_logo": "https:\/\/d1d8o7q9jg8pjk.cloudfront.net\/l\/68466252574e1.jpg",
            "store_logo_md": "https:\/\/d1d8o7q9jg8pjk.cloudfront.net\/l\/md_68466252574e1.jpg",
            "store_logo_xs": "https:\/\/d1d8o7q9jg8pjk.cloudfront.net\/l\/xs_68466252574e1.jpg",
            "photo_md": "https:\/\/api-dash.olsera.co.id\/img\/no_data_item.png",
            "photo_xs": "https:\/\/api-dash.olsera.co.id\/img\/no_data_item.png",
            "product_id": 97058010,
            "product_group_name": "CAKE",
            "product_name": "Cheese cake",
            "product_sku": "",
            "product_variant_id": null,
            "product_variant_name": null,
            "product_variant_sku": null,
            "beginning_qty": 0,
            "sum_incoming_qty": 10,
            "sum_return_qty": 0,
            "sum_sales_qty": 8,
            "sum_outgoing_qty": 0,
            "sisa": 2
        },
        {
            "store_id": 284378,
            "store_name": "Sepio",
            "store_logo": "https:\/\/d1d8o7q9jg8pjk.cloudfront.net\/l\/68466252574e1.jpg",
            "store_logo_md": "https:\/\/d1d8o7q9jg8pjk.cloudfront.net\/l\/md_68466252574e1.jpg",
            "store_logo_xs": "https:\/\/d1d8o7q9jg8pjk.cloudfront.net\/l\/xs_68466252574e1.jpg",
            "photo_md": "https:\/\/api-dash.olsera.co.id\/img\/no_data_item.png",
            "photo_xs": "https:\/\/api-dash.olsera.co.id\/img\/no_data_item.png",
            "product_id": 95073877,
            "product_group_name": "Bahan Baku",
            "product_name": "BB-ethopia",
            "product_sku": "",
            "product_variant_id": null,
            "product_variant_name": null,
            "product_variant_sku": null,
            "beginning_qty": 66,
            "sum_incoming_qty": 6,
            "sum_return_qty": 0,
            "sum_sales_qty": 38,
            "sum_outgoing_qty": 0,
            "sisa": 34
        },
        {
            "store_id": 284378,
            "store_name": "Sepio",
            "store_logo": "https:\/\/d1d8o7q9jg8pjk.cloudfront.net\/l\/68466252574e1.jpg",
            "store_logo_md": "https:\/\/d1d8o7q9jg8pjk.cloudfront.net\/l\/md_68466252574e1.jpg",
            "store_logo_xs": "https:\/\/d1d8o7q9jg8pjk.cloudfront.net\/l\/xs_68466252574e1.jpg",
            "photo_md": "https:\/\/api-dash.olsera.co.id\/img\/no_data_item.png",
            "photo_xs": "https:\/\/api-dash.olsera.co.id\/img\/no_data_item.png",
            "product_id": 95552398,
            "product_group_name": "Bahan Baku",
            "product_name": "BB - Almond Milk",
            "product_sku": "",
            "product_variant_id": null,
            "product_variant_name": null,
            "product_variant_sku": null,
            "beginning_qty": 757,
            "sum_incoming_qty": 0,
            "sum_return_qty": 0,
            "sum_sales_qty": 124,
            "sum_outgoing_qty": 2,
            "sisa": 631
        }
    ],
    "links": {
        "first": "http:\/\/api-open.olsera.co.id\/api\/open-api\/v1\/en\/inventory\/stockmovement?page=1",
        "last": "http:\/\/api-open.olsera.co.id\/api\/open-api\/v1\/en\/inventory\/stockmovement?page=4",
        "prev": null,
        "next": "http:\/\/api-open.olsera.co.id\/api\/open-api\/v1\/en\/inventory\/stockmovement?page=2"
    },
    "meta": {
        "current_page": 1,
        "from": 1,
        "last_page": 4,
        "path": "http:\/\/api-open.olsera.co.id\/api\/open-api\/v1\/en\/inventory\/stockmovement",
        "per_page": 15,
        "to": 15,
        "total": 53,
        "ffrom": "1",
        "flast_page": "4",
        "fper_page": "15",
        "fto": "15",
        "ftotal": "53"
    },
    "status": 200,
    "error": 0
}